{
  "error" : "Data requested exceeds the maximum size that can be accessed with a single request.  Contact support@firebase.com for help."
}
{
  "error" : "Data requested exceeds the maximum size that can be accessed with a single request.  Contact support@firebase.com for help."
}
